^C:\SOFTWAREDEV\CALCULATOR-ASSIGNMENT-2-MORRIS\MAIN.CPP
C:\SOFTWAREDEV\CALCULATOR-ASSIGNMENT-2-MORRIS\X64\DEBUG\VC142.PDB
C:\SOFTWAREDEV\CALCULATOR-ASSIGNMENT-2-MORRIS\X64\DEBUG\VC142.IDB
C:\SOFTWAREDEV\CALCULATOR-ASSIGNMENT-2-MORRIS\X64\DEBUG\MAIN.OBJ
